{
    "name": "Transformación digital",
    "description": "Aplicación de transformación digital Vates EXO",
    "key": "com.bobra",
    "baseUrl": "https://f7451330.ngrok.io/transf-dig/",
    "vendor": {
        "name": "Example, Inc.",
        "url": "http://example.com"
    },
    "authentication": {
        "type": "none"
    },
    "apiVersion": 1,
    "modules": {
        "generalPages": [
            {
                "url": "/index.html",
                "key": "transf-dig",
                "location": "system.top.navigation.bar",
                "name": {
                    "value": "EXO"
                }
            }
        ]
    }
}